[gd_scene load_steps=6 format=2]

[ext_resource path="res://Fonts/Brightly Crush Shine.otf" type="DynamicFontData" id=1]
[ext_resource path="res://Fonts/COMICATE.TTF" type="DynamicFontData" id=2]
[ext_resource path="res://Scripts/button-title-jogar.gd" type="Script" id=3]

[sub_resource type="DynamicFont" id=1]
size = 80
font_data = ExtResource( 1 )

[sub_resource type="DynamicFont" id=2]
size = 90
font_data = ExtResource( 2 )

[node name="Control" type="Control"]
anchor_right = 1.0
anchor_bottom = 1.0
__meta__ = {
"_edit_use_anchors_": false
}

[node name="ColorRect" type="ColorRect" parent="."]
margin_right = 1280.0
margin_bottom = 720.0
color = Color( 0.388235, 0.0823529, 0.615686, 1 )
__meta__ = {
"_edit_use_anchors_": false
}

[node name="Label" type="Label" parent="."]
margin_left = -258.474
margin_top = 86.1603
margin_right = 1556.53
margin_bottom = 456.16
custom_fonts/font = SubResource( 1 )
custom_colors/font_color = Color( 0.996078, 0.984314, 0.129412, 1 )
custom_colors/font_color_shadow = Color( 0.054902, 0.0156863, 0.301961, 1 )
custom_constants/shadow_offset_x = -4
custom_constants/shadow_offset_y = 4
text = "O MELHOR JOGO 3D DA HISTÓRIA?
"
align = 1
valign = 1
__meta__ = {
"_edit_use_anchors_": false
}

[node name="button-title-jogar" type="Button" parent="."]
margin_left = 449.142
margin_top = 413.694
margin_right = 880.142
margin_bottom = 571.694
custom_fonts/font = SubResource( 2 )
custom_colors/font_color = Color( 0.807843, 1, 0.00784314, 1 )
custom_colors/font_color_hover = Color( 0.407843, 1, 0, 1 )
custom_colors/font_color_pressed = Color( 0.94902, 0.607843, 0.12549, 1 )
text = "JOgar"
flat = true
script = ExtResource( 3 )
__meta__ = {
"_edit_use_anchors_": false
}
[connection signal="pressed" from="button-title-jogar" to="button-title-jogar" method="_on_buttontitlejogar_pressed"]
